{
  "bot_started": "Бот {bot.full_name} запущен",
  "start_message": "Используйте кнопки в меню ниже",
  "create_reminder": "Создать напоминание",
  "enter_datetime": "Введите дату напоминания (в формате dd.mm.yyyy HH:MM)",
  "enter_message": "Введите сообщение напоминания",
  "reminder_created": "Напоминание создано"
}